2020-02-08 02:09:18,148 ERROR: Exception on /auth/login [GET] [in /home/cj/Projects/flask_tutorial/microblog/venv/lib/python3.6/site-packages/flask/app.py:1891]
Traceback (most recent call last):
  File "/home/cj/Projects/flask_tutorial/microblog/venv/lib/python3.6/site-packages/flask/app.py", line 2446, in wsgi_app
    response = self.full_dispatch_request()
  File "/home/cj/Projects/flask_tutorial/microblog/venv/lib/python3.6/site-packages/flask/app.py", line 1951, in full_dispatch_request
    rv = self.handle_user_exception(e)
  File "/home/cj/Projects/flask_tutorial/microblog/venv/lib/python3.6/site-packages/flask/app.py", line 1820, in handle_user_exception
    reraise(exc_type, exc_value, tb)
  File "/home/cj/Projects/flask_tutorial/microblog/venv/lib/python3.6/site-packages/flask/_compat.py", line 39, in reraise
    raise value
  File "/home/cj/Projects/flask_tutorial/microblog/venv/lib/python3.6/site-packages/flask/app.py", line 1949, in full_dispatch_request
    rv = self.dispatch_request()
  File "/home/cj/Projects/flask_tutorial/microblog/venv/lib/python3.6/site-packages/flask/app.py", line 1935, in dispatch_request
    return self.view_functions[rule.endpoint](**req.view_args)
  File "/home/cj/Projects/flask/FlaskTutorial/microblog/app/auth/routes.py", line 26, in login
    return render_template('auth/login.html', title='Sign In', form=form)
  File "/home/cj/Projects/flask_tutorial/microblog/venv/lib/python3.6/site-packages/flask/templating.py", line 140, in render_template
    ctx.app,
  File "/home/cj/Projects/flask_tutorial/microblog/venv/lib/python3.6/site-packages/flask/templating.py", line 120, in _render
    rv = template.render(context)
  File "/home/cj/Projects/flask_tutorial/microblog/venv/lib/python3.6/site-packages/jinja2/asyncsupport.py", line 76, in render
    return original_render(self, *args, **kwargs)
  File "/home/cj/Projects/flask_tutorial/microblog/venv/lib/python3.6/site-packages/jinja2/environment.py", line 1008, in render
    return self.environment.handle_exception(exc_info, True)
  File "/home/cj/Projects/flask_tutorial/microblog/venv/lib/python3.6/site-packages/jinja2/environment.py", line 780, in handle_exception
    reraise(exc_type, exc_value, tb)
  File "/home/cj/Projects/flask_tutorial/microblog/venv/lib/python3.6/site-packages/jinja2/_compat.py", line 37, in reraise
    raise value.with_traceback(tb)
  File "/home/cj/Projects/flask/FlaskTutorial/microblog/app/templates/auth/login.html", line 1, in top-level template code
    {% extends "base.html" %} {% import 'bootstrap/wtf.html' as wtf %} {% block
  File "/home/cj/Projects/flask/FlaskTutorial/microblog/app/templates/base.html", line 1, in top-level template code
    {% extends 'bootstrap/base.html' %}
  File "/home/cj/Projects/flask_tutorial/microblog/venv/lib/python3.6/site-packages/flask_bootstrap/templates/bootstrap/base.html", line 1, in top-level template code
    {% block doc -%}
  File "/home/cj/Projects/flask_tutorial/microblog/venv/lib/python3.6/site-packages/flask_bootstrap/templates/bootstrap/base.html", line 4, in block "doc"
    {%- block html %}
  File "/home/cj/Projects/flask_tutorial/microblog/venv/lib/python3.6/site-packages/flask_bootstrap/templates/bootstrap/base.html", line 20, in block "html"
    {% block body -%}
  File "/home/cj/Projects/flask_tutorial/microblog/venv/lib/python3.6/site-packages/flask_bootstrap/templates/bootstrap/base.html", line 23, in block "body"
    {% block content -%}
  File "/home/cj/Projects/flask/FlaskTutorial/microblog/app/templates/base.html", line 52, in block "content"
    provided in the app_content block #} {% block app_content %} {% endblock %}
  File "/home/cj/Projects/flask/FlaskTutorial/microblog/app/templates/auth/login.html", line 10, in block "app_content"
    <p>New User? <a href="{{ url_for('register') }}">Click to Register!</a></p>
  File "/home/cj/Projects/flask_tutorial/microblog/venv/lib/python3.6/site-packages/flask/helpers.py", line 370, in url_for
    return appctx.app.handle_url_build_error(error, endpoint, values)
  File "/home/cj/Projects/flask_tutorial/microblog/venv/lib/python3.6/site-packages/flask/app.py", line 2215, in handle_url_build_error
    reraise(exc_type, exc_value, tb)
  File "/home/cj/Projects/flask_tutorial/microblog/venv/lib/python3.6/site-packages/flask/_compat.py", line 39, in reraise
    raise value
  File "/home/cj/Projects/flask_tutorial/microblog/venv/lib/python3.6/site-packages/flask/helpers.py", line 358, in url_for
    endpoint, values, method=method, force_external=external
  File "/home/cj/Projects/flask_tutorial/microblog/venv/lib/python3.6/site-packages/werkzeug/routing.py", line 2020, in build
    raise BuildError(endpoint, values, method, self)
werkzeug.routing.BuildError: Could not build url for endpoint 'register'. Did you mean 'auth.register' instead?
2020-02-08 02:10:03,445 INFO: Microblog startup [in /home/cj/Projects/flask/FlaskTutorial/microblog/app/__init__.py:67]
2020-02-08 02:10:08,485 ERROR: Exception on /auth/login [POST] [in /home/cj/Projects/flask_tutorial/microblog/venv/lib/python3.6/site-packages/flask/app.py:1891]
Traceback (most recent call last):
  File "/home/cj/Projects/flask_tutorial/microblog/venv/lib/python3.6/site-packages/flask/app.py", line 2446, in wsgi_app
    response = self.full_dispatch_request()
  File "/home/cj/Projects/flask_tutorial/microblog/venv/lib/python3.6/site-packages/flask/app.py", line 1951, in full_dispatch_request
    rv = self.handle_user_exception(e)
  File "/home/cj/Projects/flask_tutorial/microblog/venv/lib/python3.6/site-packages/flask/app.py", line 1820, in handle_user_exception
    reraise(exc_type, exc_value, tb)
  File "/home/cj/Projects/flask_tutorial/microblog/venv/lib/python3.6/site-packages/flask/_compat.py", line 39, in reraise
    raise value
  File "/home/cj/Projects/flask_tutorial/microblog/venv/lib/python3.6/site-packages/flask/app.py", line 1949, in full_dispatch_request
    rv = self.dispatch_request()
  File "/home/cj/Projects/flask_tutorial/microblog/venv/lib/python3.6/site-packages/flask/app.py", line 1935, in dispatch_request
    return self.view_functions[rule.endpoint](**req.view_args)
  File "/home/cj/Projects/flask/FlaskTutorial/microblog/app/auth/routes.py", line 24, in login
    next_page = url_for('auth.index')
  File "/home/cj/Projects/flask_tutorial/microblog/venv/lib/python3.6/site-packages/flask/helpers.py", line 370, in url_for
    return appctx.app.handle_url_build_error(error, endpoint, values)
  File "/home/cj/Projects/flask_tutorial/microblog/venv/lib/python3.6/site-packages/flask/app.py", line 2215, in handle_url_build_error
    reraise(exc_type, exc_value, tb)
  File "/home/cj/Projects/flask_tutorial/microblog/venv/lib/python3.6/site-packages/flask/_compat.py", line 39, in reraise
    raise value
  File "/home/cj/Projects/flask_tutorial/microblog/venv/lib/python3.6/site-packages/flask/helpers.py", line 358, in url_for
    endpoint, values, method=method, force_external=external
  File "/home/cj/Projects/flask_tutorial/microblog/venv/lib/python3.6/site-packages/werkzeug/routing.py", line 2020, in build
    raise BuildError(endpoint, values, method, self)
werkzeug.routing.BuildError: Could not build url for endpoint 'auth.index'. Did you mean 'auth.login' instead?
2020-02-08 02:11:03,079 INFO: Microblog startup [in /home/cj/Projects/flask/FlaskTutorial/microblog/app/__init__.py:67]
2020-02-08 02:11:07,421 ERROR: Exception on /auth/logout [GET] [in /home/cj/Projects/flask_tutorial/microblog/venv/lib/python3.6/site-packages/flask/app.py:1891]
Traceback (most recent call last):
  File "/home/cj/Projects/flask_tutorial/microblog/venv/lib/python3.6/site-packages/flask/app.py", line 2446, in wsgi_app
    response = self.full_dispatch_request()
  File "/home/cj/Projects/flask_tutorial/microblog/venv/lib/python3.6/site-packages/flask/app.py", line 1951, in full_dispatch_request
    rv = self.handle_user_exception(e)
  File "/home/cj/Projects/flask_tutorial/microblog/venv/lib/python3.6/site-packages/flask/app.py", line 1820, in handle_user_exception
    reraise(exc_type, exc_value, tb)
  File "/home/cj/Projects/flask_tutorial/microblog/venv/lib/python3.6/site-packages/flask/_compat.py", line 39, in reraise
    raise value
  File "/home/cj/Projects/flask_tutorial/microblog/venv/lib/python3.6/site-packages/flask/app.py", line 1949, in full_dispatch_request
    rv = self.dispatch_request()
  File "/home/cj/Projects/flask_tutorial/microblog/venv/lib/python3.6/site-packages/flask/app.py", line 1935, in dispatch_request
    return self.view_functions[rule.endpoint](**req.view_args)
  File "/home/cj/Projects/flask/FlaskTutorial/microblog/app/auth/routes.py", line 32, in logout
    return redirect(url_for('auth.index'))
  File "/home/cj/Projects/flask_tutorial/microblog/venv/lib/python3.6/site-packages/flask/helpers.py", line 370, in url_for
    return appctx.app.handle_url_build_error(error, endpoint, values)
  File "/home/cj/Projects/flask_tutorial/microblog/venv/lib/python3.6/site-packages/flask/app.py", line 2215, in handle_url_build_error
    reraise(exc_type, exc_value, tb)
  File "/home/cj/Projects/flask_tutorial/microblog/venv/lib/python3.6/site-packages/flask/_compat.py", line 39, in reraise
    raise value
  File "/home/cj/Projects/flask_tutorial/microblog/venv/lib/python3.6/site-packages/flask/helpers.py", line 358, in url_for
    endpoint, values, method=method, force_external=external
  File "/home/cj/Projects/flask_tutorial/microblog/venv/lib/python3.6/site-packages/werkzeug/routing.py", line 2020, in build
    raise BuildError(endpoint, values, method, self)
werkzeug.routing.BuildError: Could not build url for endpoint 'auth.index'. Did you mean 'auth.login' instead?
